0.141    2.37232e-05
0.145    2.02027e-06
0.151    1.01845e-06
0.155    6.59801e-07
0.161    4.70526e-07
0.165    3.44602e-07
0.171    2.58299e-07
0.175    2.04073e-07
0.179    1.64894e-07
0.185    1.32138e-07
0.189    1.09579e-07
0.195    9.05526e-08
0.199    7.69719e-08
0.205    6.45502e-08
0.209    5.55057e-08
0.215    4.73974e-08
0.219    4.1378e-08
0.225    3.64614e-08
0.229    3.25952e-08
0.235    2.90678e-08
0.239    2.61805e-08
0.245    2.35514e-08
0.249    2.13564e-08
0.255    1.93353e-08
0.259    1.7622e-08
0.265    1.58019e-08
0.269    1.43143e-08
0.275    1.28822e-08
0.279    1.17372e-08
0.285    1.06883e-08
0.289    9.8268e-09
0.295    8.997e-09
0.299    8.2941e-09
0.305    7.65327e-09
0.309    7.10265e-09
0.315    6.57842e-09
0.319    6.11834e-09
0.325    5.65672e-09
0.329    5.2606e-09
0.335    4.87646e-09
0.339    4.54912e-09
0.345    4.21559e-09
0.349    3.93864e-09
0.353    3.69029e-09
0.359    3.44188e-09
0.363    3.24495e-09
0.369    3.06419e-09
0.373    2.91219e-09
0.379    2.8021e-09
0.383    2.70395e-09